{
    "name":"Ujisha",
    "short_name":"Ujisha",
    "icons": [
        {
            "src": "img/pwa/icon-small-40.png",
            "type": "image/png",
            "sizes": "40x40"
        },
        {
            "src": "img/pwa/icon-small-50.png",
            "type": "image/png",
            "sizes": "50x50"
        },
        {
            "src": "img/pwa/icon-60.png",
            "type": "image/png",
            "sizes": "60x60"
        },
        {
            "src": "img/pwa/icon-72@2x.png",
            "type": "image/png",
            "sizes": "144x144"
        },
        {
            "src": "img/pwa/icon-167.png",
            "type": "image/png",
            "sizes": "167x167"
        },
        {
            "src": "img/pwa/icon-1024.png",
            "type": "image/png",
            "sizes": "1024x1024"
        }

     ],
    "start_url":"index.php",
    "scope":".",
    "display":"standalone",
    "background_color":"#fff",
    "theme_color":"#3F51B5",
    "description":"This is my app",
    "dir":"ltr",
    "lang":"en-US",
    "orientation":"portrait"
    

}